Stat 480 - Homework #7
…
For each city and state combination, calculate the mean MMR vaccination rate weighted by enrollment, the total number of students enrolled, and the mean of the state average calculated in the previous step.

only consider rows where the total enrollment is more than 250 and less than 100,000.

measles5 = measles4 %>%
  filter(enroll > 0)

measles6 = measles5 %>%
  filter(name != "West Valley School Prek-6")

# original data
measles %>%
distinct(year, city, state, name, type, enroll, mmr, .keep_all= TRUE)

## # A tibble: 46,383 x 16
##    index state year  name  type  city  county district enroll   mmr overall
##    <dbl> <chr> <chr> <chr> <chr> <chr> <chr>  <lgl>     <dbl> <dbl>   <dbl>
##  1     1 Ariz~ 2018~ A J ~ Publ~ Noga~ Santa~ NA           51   100      -1
##  2     2 Ariz~ 2018~ Acad~ Char~ Tucs~ Pima   NA           22   100      -1
##  3     3 Ariz~ 2018~ Acad~ Char~ Tucs~ Pima   NA           85   100      -1
##  4     4 Ariz~ 2018~ Acad~ Char~ Phoe~ Maric~ NA           60   100      -1
##  5     5 Ariz~ 2018~ Accl~ Char~ Phoe~ Maric~ NA           43   100      -1
##  6     6 Ariz~ 2018~ Alfr~ Publ~ Phoe~ Maric~ NA           36   100      -1
##  7     7 Ariz~ 2018~ All ~ Char~ Phoe~ Maric~ NA           24   100      -1
##  8     8 Ariz~ 2018~ Amer~ Char~ Yuma  Yuma   NA           22   100      -1
##  9     9 Ariz~ 2018~ Ariz~ Priv~ Phoe~ Maric~ NA           26   100      -1
## 10    10 Ariz~ 2018~ Ariz~ Publ~ San ~ Yuma   NA           78   100      -1
## # ... with 46,373 more rows, and 5 more variables: xrel <lgl>, xmed <dbl>,
## #   xper <dbl>, lat <dbl>, lng <dbl>

# enrolled filtered data (i.e. the one created in this question)
measles6 %>%
distinct(year, city, state, name, type, enroll, mmr)

## # A tibble: 16,033 x 7
## # Groups:   name [16,033]
##    year    city     state   name                             type   enroll   mmr
##    <chr>   <chr>    <chr>   <chr>                            <chr>   <dbl> <dbl>
##  1 2018-19 Nogales  Arizona A J Mitchell Elementary          Public     51   100
##  2 2018-19 Tucson   Arizona Academy Del Sol                  Chart~     22   100
##  3 2018-19 Tucson   Arizona Academy Del Sol - Hope           Chart~     85   100
##  4 2018-19 Phoenix  Arizona Academy Of Mathematics And Scie~ Chart~     60   100
##  5 2018-19 Phoenix  Arizona Acclaim Academy                  Chart~     43   100
##  6 2018-19 Phoenix  Arizona Alfred F Garcia                  Public     36   100
##  7 2018-19 Phoenix  Arizona All Aboard Charter               Chart~     24   100
##  8 2018-19 Yuma     Arizona Amerischools Academy - Yuma Sou~ Chart~     22   100
##  9 2018-19 Phoenix  Arizona Arizona Cultural Academy         Priva~     26   100
## 10 2018-19 San Luis Arizona Arizona Desert Elementary        Public     78   100
## # ... with 16,023 more rows
…
