MidtermExam.utf8
…
Rename the variables Province/State, Country/Region, Lat, and Long to be province, country, lat, and long, respectively.

global2 <- global_Q1 %>%
  rename(province = `Province/State`) %>%
  rename(country = `Country/Region`) %>%
  rename(lat = Lat) %>%
  rename(long = Long)

Each row contains data for one province-country pair. How many countries are represented in this data set?

global2 %>%
  group_by(country) %>%
  count(country)

## # A tibble: 184 x 2
## # Groups:   country [184]
##    country                 n
##    <chr>               <int>
##  1 Afghanistan             1
##  2 Albania                 1
##  3 Algeria                 1
##  4 Andorra                 1
##  5 Angola                  1
##  6 Antigua and Barbuda     1
##  7 Argentina               1
##  8 Armenia                 1
##  9 Australia               8
## 10 Austria                 1
## # ... with 174 more rows
…
# It took Germany 16 days to go from 500 to 20,000 cases

# Iran
cases_long5 %>%
  group_by(country) %>%
  filter(country == "Iran") %>%
  filter(confirmed_cases >= 500, confirmed_cases <= 20800)

## # A tibble: 22 x 4
## # Groups:   country [1]
##    province country date       confirmed_cases
##    <chr>    <chr>   <date>               <dbl>
##  1 <NA>     Iran    2020-02-29             593
##  2 <NA>     Iran    2020-03-01             978
##  3 <NA>     Iran    2020-03-02            1501
##  4 <NA>     Iran    2020-03-03            2336
##  5 <NA>     Iran    2020-03-04            2922
##  6 <NA>     Iran    2020-03-05            3513
##  7 <NA>     Iran    2020-03-06            4747
##  8 <NA>     Iran    2020-03-07            5823
##  9 <NA>     Iran    2020-03-08            6566
## 10 <NA>     Iran    2020-03-09            7161
## # ... with 12 more rows
…
